{
  "project_info": {
    "project_number": "79944978102",
    "firebase_url": "https://infinite-taxi-app.firebaseio.com",
    "project_id": "infinite-taxi-app",
    "storage_bucket": "infinite-taxi-app.appspot.com"
  },
  "client": [
    {
      "client_info": {
        "mobilesdk_app_id": "1:79944978102:android:3ef8f34df5422bf7a02017",
        "android_client_info": {
          "package_name": "com.cab_taxi.infinitecabs"
        }
      },
      "oauth_client": [
        {
          "client_id": "79944978102-cjdrc45c0vt15346ml1dnvd62lfu72m5.apps.googleusercontent.com",
          "client_type": 3
        }
      ],
      "api_key": [
        {
          "current_key": "AIzaSyB10Zf3CV_6Oa_EkwThqiJ_RL9b4d_zqLo"
        }
      ],
      "services": {
        "appinvite_service": {
          "other_platform_oauth_client": [
            {
              "client_id": "79944978102-cjdrc45c0vt15346ml1dnvd62lfu72m5.apps.googleusercontent.com",
              "client_type": 3
            }
          ]
        }
      }
    },
    {
      "client_info": {
        "mobilesdk_app_id": "1:79944978102:android:2856a453e903adaba02017",
        "android_client_info": {
          "package_name": "com.infinite_taxi_driver"
        }
      },
      "oauth_client": [
        {
          "client_id": "79944978102-cjdrc45c0vt15346ml1dnvd62lfu72m5.apps.googleusercontent.com",
          "client_type": 3
        }
      ],
      "api_key": [
        {
          "current_key": "AIzaSyB10Zf3CV_6Oa_EkwThqiJ_RL9b4d_zqLo"
        }
      ],
      "services": {
        "appinvite_service": {
          "other_platform_oauth_client": [
            {
              "client_id": "79944978102-cjdrc45c0vt15346ml1dnvd62lfu72m5.apps.googleusercontent.com",
              "client_type": 3
            }
          ]
        }
      }
    }
  ],
  "configuration_version": "1"
}